%YAML 1.1
%TAG !u! tag:unity3d.com,2011:
--- !u!162 &1
EditorUserSettings:
  m_ObjectHideFlags: 0
  serializedVersion: 4
  m_ConfigSettings:
    RecentlyUsedSceneGuid-0:
      value: 5654035552535b025e0b5f7244270a44174f1b7f7a792235782a1b32b3b2313b
      flags: 0
    RecentlyUsedSceneGuid-1:
      value: 5a5757560101590a5d0c0e24427b5d44434e4c7a7b7a23677f2b4565b7b5353a
      flags: 0
    RecentlyUsedSceneGuid-2:
      value: 5709570201055e580b5b0f7111770c4443164a7f7d707e627b714b31b7b9316a
      flags: 0
    RecentlyUsedSceneGuid-3:
      value: 05070d5f510c0f0b0c0c0e7040730e4440164c7d292a2562757d1e6ae3e26768
      flags: 0
    RecentlyUsedSceneGuid-4:
      value: 5b00010056560c08595e0e72407a09444f4f497d7e2c22607b7a4c63b5b66668
      flags: 0
    RecentlyUsedSceneGuid-5:
      value: 070500000754085f0f57082116720a441415417d7b2d24602c2a4a62b6e1306f
      flags: 0
    RecentlyUsedSceneGuid-6:
      value: 07550c045c0c0a0d550c0d2711715944454f4d2e7e2e74317c714962bbb1306b
      flags: 0
    RecentlyUsedSceneGuid-7:
      value: 57050c055050505a0b595b7a1227594417164b2c7a2d77637b2f4b35b2e3306f
      flags: 0
    vcSharedLogLevel:
      value: 0d5e400f0650
      flags: 0
  m_VCAutomaticAdd: 1
  m_VCDebugCom: 0
  m_VCDebugCmd: 0
  m_VCDebugOut: 0
  m_SemanticMergeMode: 2
  m_DesiredImportWorkerCount: 4
  m_StandbyImportWorkerCount: 2
  m_IdleImportWorkerShutdownDelay: 60000
  m_VCShowFailedCheckout: 1
  m_VCOverwriteFailedCheckoutAssets: 1
  m_VCProjectOverlayIcons: 1
  m_VCHierarchyOverlayIcons: 1
  m_VCOtherOverlayIcons: 1
  m_VCAllowAsyncUpdate: 1
  m_ArtifactGarbageCollection: 1
